

-----Original Message-----
From: e082276@tsmc.com [mailto:e082276@tsmc.com] 
Sent: Friday, September 15, 2017 4:47 PM
To: iris@ocean-dl.com.tw
Cc: yphuangk@tsmc.com
Subject: Fw: 雄洋科技-測試TAG


Dear 雄洋
Test log
傖髡湖羲揹諳潼弝, 輛最: 3748     ARM.exe
COM1 Write(hex): 4(Bytes)FC FF B5 FF
COM1 Read(hex): 1(Bytes) CA
COM1 Write(hex): 8(Bytes)FF FF EF FF F7 FF FF 07
COM1 Write(hex): 7(Bytes)F0 FF 7F FB FF 7F FF
COM1 Read(hex): 57(Bytes) 60 80 80 0A 00 00 80 80 80 80 40 40 40 40 20 20
20 20 10 10 10 10 08 08 08 08 04 04 04 04 02 02 02 02 01 C9 C9 2A 5C C5 A5
E5 86 53 43 5D 63 10 10 88 88 8A 8D CA AA A1 C6
COM1 Read(hex): 88(Bytes) FD C9 36 10 10 88 8C 04 C9 AD A5 95 30 2E 10 10 2A
B2 91 B5 E6 A6 34 30 8C 88 C4 24 C7 C4 63 52 04 04 82 82 82 82 26 3E 1C
25 25 92 13 11 11 04 04 82 82 82 82 2E 3E 4A 93 E2 31 31 8C EC FA 86 8E FA
43 4B 41 41 10 10 88 88 88 88 44 44 44 44 22 22 22 52 22 AA D1 AE
COM1 Read(hex): 96(Bytes) 82 82 41 41 41 41 10 10 88 88 48 C9 2A A2 C6 AE
82 82 41 41 41 41 10 10 88 88 88 88 44 44 44 44 22 22 22 22 11 11 11 11 04
72 F9 95 D1 A6 57 41 41 41 10 10 88 88 88 88 44 44 44 44 22 22 22 22 11 11
11 11 04 04 82 82 82 82 41 41 41 41 10 10 88 88 88 88 44 44 44 44 82 01 01
00 00 80 80 80
COM1 Read(hex): 9(Bytes) 80 40 40 40 40 20 E0 28 64
COM1 Write(hex): 4(Bytes)FC FF B5 FF
COM1 Write(hex): 4(Bytes)FC FF B5 FF
COM1 Write(hex): 4(Bytes)FC FF B5 FF
COM1 Write(hex): 4(Bytes)FC FF B5 FF
COM1 Read(hex): 1(Bytes) CA
COM1 Write(hex): 8(Bytes)FF FF EF FF F7 FF FF 07
COM1 Write(hex): 7(Bytes)F0 FF 7F FB FF 7F FF
COM1 Read(hex): 49(Bytes) 60 80 80 0A 00 00 80 80 80 80 40 40 40 40 20 20
20 20 10 10 10 10 08 08 08 08 04 04 04 04 02 02 02 02 01 C9 C9 2A 5C C5 A5
E5 86 53 43 5D 63 10 10
COM1 Read(hex): 8(Bytes) 88 88 8A 8D CA AA A1 C6
COM1 Read(hex): 88(Bytes) FD C9 36 10 10 88 8C 04 C9 AD A5 95 30 2E 10 10 2A
B2 91 B5 E6 A6 34 30 8C 88 C4 24 C7 C4 63 52 04 04 82 82 82 82 26 3E 1C
25 25 92 13 11 11 04 04 82 82 82 82 2E 3E 4A 93 E2 31 31 8C EC FA 86 8E FA
43 4B 41 41 10 10 88 88 88 88 44 44 44 44 22 22 22 52 22 AA D1 AE
COM1 Read(hex): 8(Bytes) 82 82 41 41 41 41 10 10
COM1 Read(hex): 88(Bytes) 88 88 48 C9 2A A2 C6 AE 82 82 41 41 41 41 10 10
88 88 88 88 44 44 44 44 22 22 22 22 11 11 11 11 04 72 F9 95 D1 A6 57 41 41
41 10 10 88 88 88 88 44 44 44 44 22 22 22 22 11 11 11 11 04 04 82 82 82 82
41 41 41 41 10 10 88 88 88 88 44 44 44 44 82 01 01 00 00 80 80 80
COM1 Read(hex): 7(Bytes) 80 40 40 40 40 20 E0
COM1 Read(hex): 2(Bytes) 28 64
COM1 Write(hex): 4(Bytes)FC FF B5 FF
COM1 Read(hex): 1(Bytes) CA
COM1 Write(hex): 8(Bytes)FF FF EF FF F7 FF FF 07
COM1 Write(hex): 7(Bytes)F0 FF 7F FB FF 7F FF
COM1 Read(hex): 57(Bytes) 60 80 80 0A 00 00 80 80 80 80 40 40 40 40 20 20
20 20 10 10 10 10 08 08 08 08 04 04 04 04 02 02 02 02 01 C9 C9 2A 5C C5 A5
E5 86 53 43 5D 63 10 10 88 88 8A 8D CA AA A1 C6
COM1 Read(hex): 88(Bytes) FD C9 36 10 10 88 8C 04 C9 AD A5 95 30 2E 10 10 2A
B2 91 B5 E6 A6 34 30 8C 88 C4 24 C7 C4 63 52 04 04 82 82 82 82 26 3E 1C
25 25 92 13 11 11 04 04 82 82 82 82 2E 3E 4A 93 E2 31 31 8C EC FA 86 8E FA
43 4B 41 41 10 10 88 88 88 88 44 44 44 44 22 22 22 52 22 AA D1 AE
COM1 Read(hex): 96(Bytes) 82 82 41 41 41 41 10 10 88 88 48 C9 2A A2 C6 AE
82 82 41 41 41 41 10 10 88 88 88 88 44 44 44 44 22 22 22 22 11 11 11 11 04
72 F9 95 D1 A6 57 41 41 41 10 10 88 88 88 88 44 44 44 44 22 22 22 22 11 11
11 11 04 04 82 82 82 82 41 41 41 41 10 10 88 88 88 88 44 44 44 44 82 01 01
00 00 80 80 80
COM1 Read(hex): 9(Bytes) 80 40 40 40 40 20 E0 28 64
COM1 Write(hex): 4(Bytes)FC FF B5 FF
COM1 Read(hex): 1(Bytes) CA
COM1 Write(hex): 8(Bytes)FF FF EF FF F7 FF FF 07
COM1 Write(hex): 7(Bytes)F0 FF 7F FB FF 7F FF
COM1 Read(hex): 49(Bytes) 60 80 80 0A 00 00 80 80 80 80 40 40 40 40 20 20
20 20 10 10 10 10 08 08 08 08 04 04 04 04 02 02 02 02 01 C9 C9 2A 5C C5 A5
E5 86 53 43 5D 63 10 10
COM1 Read(hex): 8(Bytes) 88 88 8A 8D CA AA A1 C6
COM1 Read(hex): 8(Bytes) FD C9 36 10 10 88 8C 04
COM1 Read(hex): 88(Bytes) C9 AD A5 95 30 2E 10 10 2A B2 91 B5 E6 A6 34 30 8C
88 C4 24 C7 C4 63 52 04 04 82 82 82 82 26 3E 1C 25 25 92 13 11 11 04 04
82 82 82 82 2E 3E 4A 93 E2 31 31 8C EC FA 86 8E FA 43 4B 41 41 10 10 88 88
88 88 44 44 44 44 22 22 22 52 22 AA D1 AE 82 82 41 41 41 41 10 10
COM1 Read(hex): 8(Bytes) 88 88 48 C9 2A A2 C6 AE
COM1 Read(hex): 8(Bytes) 82 82 41 41 41 41 10 10
COM1 Read(hex): 79(Bytes) 88 88 88 88 44 44 44 44 22 22 22 22 11 11 11 11
04 72 F9 95 D1 A6 57 41 41 41 10 10 88 88 88 88 44 44 44 44 22 22 22 22 11
11 11 11 04 04 82 82 82 82 41 41 41 41 10 10 88 88 88 88 44 44 44 44 82 01
01 00 00 80 80 80 80 40 40 40 40 20 E0
COM1 Read(hex): 2(Bytes) 28 64
COM1 Write(hex): 4(Bytes)FC FF B5 FF
COM1 Read(hex): 1(Bytes) CA
COM1 Write(hex): 8(Bytes)FF FF EF FF F7 FF FF 07
COM1 Write(hex): 7(Bytes)F0 FF 7F FB FF 7F FF
COM1 Read(hex): 49(Bytes) 60 80 80 0A 00 00 80 80 80 80 40 40 40 40 20 20
20 20 10 10 10 10 08 08 08 08 04 04 04 04 02 02 02 02 01 C9 C9 2A 5C C5 A5
E5 86 53 43 5D 63 10 10
COM1 Read(hex): 8(Bytes) 88 88 8A 8D CA AA A1 C6
COM1 Read(hex): 96(Bytes) FD C9 36 10 10 88 8C 04 C9 AD A5 95 30 2E 10 10 2A
B2 91 B5 E6 A6 34 30 8C 88 C4 24 C7 C4 63 52 04 04 82 82 82 82 26 3E 1C
25 25 92 13 11 11 04 04 82 82 82 82 2E 3E 4A 93 E2 31 31 8C EC FA 86 8E FA
43 4B 41 41 10 10 88 88 88 88 44 44 44 44 22 22 22 52 22 AA D1 AE 82 82 41
41 41 41 10 10
COM1 Read(hex): 88(Bytes) 88 88 48 C9 2A A2 C6 AE 82 82 41 41 41 41 10 10
88 88 88 88 44 44 44 44 22 22 22 22 11 11 11 11 04 72 F9 95 D1 A6 57 41 41
41 10 10 88 88 88 88 44 44 44 44 22 22 22 22 11 11 11 11 04 04 82 82 82 82
41 41 41 41 10 10 88 88 88 88 44 44 44 44 82 01 01 00 00 80 80 80
COM1 Read(hex): 7(Bytes) 80 40 40 40 40 20 E0
COM1 Read(hex): 2(Bytes) 28 64
COM1 Write(hex): 4(Bytes)FC FF B5 FF
COM1 Read(hex): 1(Bytes) CA
COM1 Write(hex): 8(Bytes)FF FF EF FF F7 FF FF 07
COM1 Write(hex): 7(Bytes)F0 FF 7F FB FF 7F FF
COM1 Read(hex): 49(Bytes) 60 80 80 0A 00 00 80 80 80 80 40 40 40 40 20 20
20 20 10 10 10 10 08 08 08 08 04 04 04 04 02 02 02 02 01 C9 C9 2A 5C C5 A5
E5 86 53 43 5D 63 10 10
COM1 Read(hex): 8(Bytes) 88 88 8A 8D CA AA A1 C6
COM1 Read(hex): 96(Bytes) FD C9 36 10 10 88 8C 04 C9 AD A5 95 30 2E 10 10 2A
B2 91 B5 E6 A6 34 30 8C 88 C4 24 C7 C4 63 52 04 04 82 82 82 82 26 3E 1C
25 25 92 13 11 11 04 04 82 82 82 82 2E 3E 4A 93 E2 31 31 8C EC FA 86 8E FA
43 4B 41 41 10 10 88 88 88 88 44 44 44 44 22 22 22 52 22 AA D1 AE 82 82 41
41 41 41 10 10
COM1 Read(hex): 95(Bytes) 88 88 48 C9 2A A2 C6 AE 82 82 41 41 41 41 10 10
88 88 88 88 44 44 44 44 22 22 22 22 11 11 11 11 04 72 F9 95 D1 A6 57 41 41
41 10 10 88 88 88 88 44 44 44 44 22 22 22 22 11 11 11 11 04 04 82 82 82 82
41 41 41 41 10 10 88 88 88 88 44 44 44 44 82 01 01 00 00 80 80 80 80 40 40
40 40 20 E0
COM1 Read(hex): 2(Bytes) 28 64
COM1 Write(hex): 4(Bytes)FC FF B5 FF
COM1 Read(hex): 1(Bytes) CA
COM1 Write(hex): 8(Bytes)FF FF EF FF F7 FF FF 07
COM1 Write(hex): 7(Bytes)F0 FF 7F FB FF 7F FF
COM1 Read(hex): 57(Bytes) 60 80 80 0A 00 00 80 80 80 80 40 40 40 40 20 20
20 20 10 10 10 10 08 08 08 08 04 04 04 04 02 02 02 02 01 C9 C9 2A 5C C5 A5
E5 86 53 43 5D 63 10 10 88 88 8A 8D CA AA A1 C6
COM1 Read(hex): 88(Bytes) FD C9 36 10 10 88 8C 04 C9 AD A5 95 30 2E 10 10 2A
B2 91 B5 E6 A6 34 30 8C 88 C4 24 C7 C4 63 52 04 04 82 82 82 82 26 3E 1C
25 25 92 13 11 11 04 04 82 82 82 82 2E 3E 4A 93 E2 31 31 8C EC FA 86 8E FA
43 4B 41 41 10 10 88 88 88 88 44 44 44 44 22 22 22 52 22 AA D1 AE
COM1 Read(hex): 96(Bytes) 82 82 41 41 41 41 10 10 88 88 48 C9 2A A2 C6 AE
82 82 41 41 41 41 10 10 88 88 88 88 44 44 44 44 22 22 22 22 11 11 11 11 04
72 F9 95 D1 A6 57 41 41 41 10 10 88 88 88 88 44 44 44 44 22 22 22 22 11 11
11 11 04 04 82 82 82 82 41 41 41 41 10 10 88 88 88 88 44 44 44 44 82 01 01
00 00 80 80 80
COM1 Read(hex): 9(Bytes) 80 40 40 40 40 20 E0 28 64
COM1 Write(hex): 4(Bytes)FC FF B5 FF
COM1 Read(hex): 1(Bytes) CA
COM1 Write(hex): 8(Bytes)FF FF EF FF F7 FF FF 07
COM1 Write(hex): 7(Bytes)F0 FF 7F FB FF 7F FF
COM1 Read(hex): 49(Bytes) 60 80 80 0A 00 00 80 80 80 80 40 40 40 40 20 20
20 20 10 10 10 10 08 08 08 08 04 04 04 04 02 02 02 02 01 C9 C9 2A 5C C5 A5
E5 86 53 43 5D 63 10 10
COM1 Read(hex): 8(Bytes) 88 88 8A 8D CA AA A1 C6
COM1 Read(hex): 96(Bytes) FD C9 36 10 10 88 8C 04 C9 AD A5 95 30 2E 10 10 2A
B2 91 B5 E6 A6 34 30 8C 88 C4 24 C7 C4 63 52 04 04 82 82 82 82 26 3E 1C
25 25 92 13 11 11 04 04 82 82 82 82 2E 3E 4A 93 E2 31 31 8C EC FA 86 8E FA
43 4B 41 41 10 10 88 88 88 88 44 44 44 44 22 22 22 52 22 AA D1 AE 82 82 41
41 41 41 10 10
COM1 Read(hex): 95(Bytes) 88 88 48 C9 2A A2 C6 AE 82 82 41 41 41 41 10 10
88 88 88 88 44 44 44 44 22 22 22 22 11 11 11 11 04 72 F9 95 D1 A6 57 41 41
41 10 10 88 88 88 88 44 44 44 44 22 22 22 22 11 11 11 11 04 04 82 82 82 82
41 41 41 41 10 10 88 88 88 88 44 44 44 44 82 01 01 00 00 80 80 80 80 40 40
40 40 20 E0
COM1 Read(hex): 2(Bytes) 28 64
COM1 Write(hex): 4(Bytes)FC FF B5 FF
COM1 Read(hex): 1(Bytes) CA
COM1 Write(hex): 8(Bytes)FF FF EF FF F7 FF FF 07
COM1 Write(hex): 7(Bytes)F0 FF 7F FB FF 7F FF
COM1 Read(hex): 57(Bytes) 60 80 80 0A 00 00 80 80 80 80 40 40 40 40 20 20
20 20 10 10 10 10 08 08 08 08 04 04 04 04 02 02 02 02 01 C9 C9 2A 5C C5 A5
E5 86 53 43 5D 63 10 10 88 88 8A 8D CA AA A1 C6
COM1 Read(hex): 88(Bytes) FD C9 36 10 10 88 8C 04 C9 AD A5 95 30 2E 10 10 2A
B2 91 B5 E6 A6 34 30 8C 88 C4 24 C7 C4 63 52 04 04 82 82 82 82 26 3E 1C
25 25 92 13 11 11 04 04 82 82 82 82 2E 3E 4A 93 E2 31 31 8C EC FA 86 8E FA
43 4B 41 41 10 10 88 88 88 88 44 44 44 44 22 22 22 52 22 AA D1 AE
COM1 Read(hex): 8(Bytes) 82 82 41 41 41 41 10 10
COM1 Read(hex): 88(Bytes) 88 88 48 C9 2A A2 C6 AE 82 82 41 41 41 41 10 10
88 88 88 88 44 44 44 44 22 22 22 22 11 11 11 11 04 72 F9 95 D1 A6 57 41 41
41 10 10 88 88 88 88 44 44 44 44 22 22 22 22 11 11 11 11 04 04 82 82 82 82
41 41 41 41 10 10 88 88 88 88 44 44 44 44 82 01 01 00 00 80 80 80
COM1 Read(hex): 9(Bytes) 80 40 40 40 40 20 E0 28 64
COM1 Write(hex): 4(Bytes)FC FF B5 FF
COM1 Read(hex): 1(Bytes) CA
COM1 Write(hex): 8(Bytes)FF FF EF FF F7 FF FF 07
COM1 Write(hex): 7(Bytes)F0 FF 7F FB FF 7F FF
COM1 Read(hex): 49(Bytes) 50 80 80 0A 00 00 80 80 80 80 40 40 40 40 20 20
20 20 10 10 10 10 08 08 08 08 04 04 04 04 02 02 02 02 01 C9 C9 2A 5C C5 A5
E5 86 53 43 5D 63 10 10
COM1 Read(hex): 8(Bytes) 88 88 8A 8D CA AA A1 C6
COM1 Write(hex): 4(Bytes)FC FF B5 FF
COM1 Write(hex): 4(Bytes)FC FF B5 FF
COM1 Read(hex): 96(Bytes) FD C9 B6 90 10 AD 8C 04 C9 AD A5 95 30 2E 10 10 2A
B2 91 B5 E6 F6 3C 70 C6 62 62 12 0C 8C 86 E5 82 82 41 41 41 41 26 3E 1C
25 25 92 13 11 11 04 04 82 82 82 82 2E 3E 4A 93 E2 31 31 8C EC FA 86 8E FA
43 4B 41 41 10 10 88 88 88 88 44 44 44 44 22 22 22 52 22 AA D1 AE 82 82 41
41 41 41 10 10
COM1 Write(hex): 4(Bytes)FC FF B5 FF
COM1 Read(hex): 95(Bytes) 88 88 48 C9 2A A2 C6 EE 42 C1 AA 88 44 44 44 44
22 22 22 22 11 11 11 11 04 04 82 82 82 82 41 41 41 2E 3E 49 8D C5 45 44 22
22 22 22 11 11 11 11 04 04 82 82 82 82 41 41 41 41 10 10 88 88 88 88 44 44
44 44 22 22 22 22 11 11 11 11 04 04 82 82 A8 80 40 40 40 40 20 20 20 20 10
10 10 10 F8
COM1 Write(hex): 4(Bytes)FC FF B5 FF
COM1 Read(hex): 2(Bytes) 28 64
COM1 Write(hex): 4(Bytes)FC FF B5 FF
COM1 Read(hex): 1(Bytes) CA
COM1 Write(hex): 8(Bytes)FF FF EF FF F7 FF FF 07
COM1 Write(hex): 7(Bytes)F0 FF 7F FB FF 7F FF
COM1 Read(hex): 57(Bytes) 60 80 80 0A 00 00 80 80 80 80 40 40 40 40 20 20
20 20 10 10 10 10 08 08 08 08 04 04 04 04 02 02 02 02 01 C9 C9 2A 5C C5 A5
E5 86 53 43 5D 63 10 10 88 88 8A 8D CA AA A1 C6
COM1 Read(hex): 88(Bytes) FD C9 36 10 10 88 8C 04 C9 AD A5 95 30 2E 10 10 2A
B2 91 B5 E6 A6 34 30 8C 88 C4 24 C7 C4 63 52 04 04 82 82 82 82 26 3E 1C
25 25 92 13 11 11 04 04 82 82 82 82 2E 3E 4A 93 E2 31 31 8C EC FA 86 8E FA
43 4B 41 41 10 10 88 88 88 88 44 44 44 44 22 22 22 52 22 AA D1 AE
COM1 Read(hex): 96(Bytes) 82 82 41 41 41 41 10 10 88 88 48 C9 2A A2 C6 AE
82 82 41 41 41 41 10 10 88 88 88 88 44 44 44 44 22 22 22 22 11 11 11 11 04
72 F9 95 D1 A6 57 41 41 41 10 10 88 88 88 88 44 44 44 44 22 22 22 22 11 11
11 11 04 04 82 82 82 82 41 41 41 41 10 10 88 88 88 88 44 44 44 44 82 01 01
00 00 80 80 80
COM1 Read(hex): 9(Bytes) 80 40 40 40 40 20 E0 28 64
COM1 Write(hex): 4(Bytes)FC FF B5 FF
COM1 Read(hex): 1(Bytes) CA
COM1 Write(hex): 8(Bytes)FF FF EF FF F7 FF FF 07
COM1 Write(hex): 7(Bytes)F0 FF 7F FB FF 7F FF
COM1 Read(hex): 57(Bytes) 60 80 80 0A 00 00 80 80 80 80 40 40 40 40 20 20
20 20 10 10 10 10 08 08 08 08 04 04 04 04 02 02 02 02 01 C9 C9 2A 5C C5 A5
E5 86 53 43 5D 63 10 10 88 88 8A 8D CA AA A1 C6
COM1 Read(hex): 88(Bytes) FD C9 36 10 10 88 8C 04 C9 AD A5 95 30 2E 10 10 2A
B2 91 B5 E6 A6 34 30 8C 88 C4 24 C7 C4 63 52 04 04 82 82 82 82 26 3E 1C
25 25 92 13 11 11 04 04 82 82 82 82 2E 3E 4A 93 E2 31 31 8C EC FA 86 8E FA
43 4B 41 41 10 10 88 88 88 88 44 44 44 44 22 22 22 52 22 AA D1 AE
COM1 Read(hex): 8(Bytes) 82 82 41 41 41 41 10 10
COM1 Read(hex): 8(Bytes) 88 88 48 C9 2A A2 C6 AE
COM1 Read(hex): 8(Bytes) 82 82 41 41 41 41 10 10
COM1 Read(hex): 79(Bytes) 88 88 88 88 44 44 44 44 22 22 22 22 11 11 11 11
04 72 F9 95 D1 A6 57 41 41 41 10 10 88 88 88 88 44 44 44 44 22 22 22 22 11
11 11 11 04 04 82 82 82 82 41 41 41 41 10 10 88 88 88 88 44 44 44 44 82 01
01 00 00 80 80 80 80 40 40 40 40 20 E0
COM1 Read(hex): 2(Bytes) 28 64
COM1 Write(hex): 4(Bytes)FC FF B5 FF
COM1 Read(hex): 1(Bytes) CA
COM1 Write(hex): 8(Bytes)FF FF EF FF F7 FF FF 07
COM1 Write(hex): 7(Bytes)F0 FF 7F FB FF 7F FF
COM1 Read(hex): 49(Bytes) 60 80 80 0A 00 00 80 80 80 80 40 40 40 40 20 20
20 20 10 10 10 10 08 08 08 08 04 04 04 04 02 02 02 02 01 C9 C9 2A 5C C5 A5
E5 86 53 43 5D 63 10 10
COM1 Read(hex): 88(Bytes) 88 88 8A 8D CA AA A1 C6 FD C9 36 10 10 88 8C 04
C9 AD A5 95 30 2E 10 10 2A B2 91 B5 E6 A6 34 30 8C 88 C4 24 C7 C4 63 52 04
04 82 82 82 82 26 3E 1C 25 25 92 13 11 11 04 04 82 82 82 82 2E 3E 4A 93 E2
31 31 8C EC FA 86 8E FA 43 4B 41 41 10 10 88 88 88 88 44 44 44 44
COM1 Read(hex): 8(Bytes) 22 22 22 52 22 AA D1 AE
COM1 Read(hex): 8(Bytes) 82 82 41 41 41 41 10 10
COM1 Read(hex): 88(Bytes) 88 88 48 C9 2A A2 C6 AE 82 82 41 41 41 41 10 10
88 88 88 88 44 44 44 44 22 22 22 22 11 11 11 11 04 72 F9 95 D1 A6 57 41 41
41 10 10 88 88 88 88 44 44 44 44 22 22 22 22 11 11 11 11 04 04 82 82 82 82
41 41 41 41 10 10 88 88 88 88 44 44 44 44 82 01 01 00 00 80 80 80
COM1 Read(hex): 7(Bytes) 80 40 40 40 40 20 E0
COM1 Read(hex): 2(Bytes) 28 64
COM1 Write(hex): 4(Bytes)FC FF B5 FF
COM1 Read(hex): 1(Bytes) CA
COM1 Write(hex): 8(Bytes)FF FF EF FF F7 FF FF 07
COM1 Write(hex): 7(Bytes)F0 FF 7F FB FF 7F FF
COM1 Read(hex): 49(Bytes) 60 80 80 0A 00 00 80 80 80 80 40 40 40 40 20 20
20 20 10 10 10 10 08 08 08 08 04 04 04 04 02 02 02 02 01 C9 C9 2A 5C C5 A5
E5 86 53 43 5D 63 10 10
COM1 Read(hex): 8(Bytes) 88 88 8A 8D CA AA A1 C6
COM1 Read(hex): 8(Bytes) FD C9 36 10 10 88 8C 04
COM1 Read(hex): 96(Bytes) C9 AD A5 95 30 2E 10 10 2A B2 91 B5 E6 A6 34 30 8C
88 C4 24 C7 C4 63 52 04 04 82 82 82 82 26 3E 1C 25 25 92 13 11 11 04 04
82 82 82 82 2E 3E 4A 93 E2 31 31 8C EC FA 86 8E FA 43 4B 41 41 10 10 88 88
88 88 44 44 44 44 22 22 22 52 22 AA D1 AE 82 82 41 41 41 41 10 10 88 88 48
C9 2A A2 C6 AE
COM1 Read(hex): 87(Bytes) 82 82 41 41 41 41 10 10 88 88 88 88 44 44 44 44
22 22 22 22 11 11 11 11 04 72 F9 95 D1 A6 57 41 41 41 10 10 88 88 88 88 44
44 44 44 22 22 22 22 11 11 11 11 04 04 82 82 82 82 41 41 41 41 10 10 88 88
88 88 44 44 44 44 82 01 01 00 00 80 80 80 80 40 40 40 40 20 E0
COM1 Read(hex): 2(Bytes) 28 64
-------------------------------------------------------------------------------------
COM1 Write(hex): 4(Bytes)FC FF B5 FF
COM1 Read(hex): 1(Bytes) CA
COM1 Write(hex): 8(Bytes)FF FF EF FF F7 FF FF 07
COM1 Write(hex): 7(Bytes)F0 FF 7F FB FF 7F FF
COM1 Read(hex): 57(Bytes) 60 80 80 0A 00 00 80 80 80 80 40 40 40 40 20 20
20 20 10 10 10 10 08 08 08 08 04 04 04 04 02 02 02 02 01 C9 C9 2A 5C C5 A5
E5 86 53 43 5D 63 10 10 88 88 8A 8D CA AA A1 C6
COM1 Read(hex): 96(Bytes) FD C9 36 10 10 88 8C 04 C9 AD A5 95 30 2E 10 10 2A
B2 91 B5 E6 A6 34 30 8C 88 C4 24 C7 C4 63 52 04 04 82 82 82 82 26 3E 1C
25 25 92 13 11 11 04 04 82 82 82 82 2E 3E 4A 93 E2 31 31 8C EC FA 86 8E FA
43 4B 41 41 10 10 88 88 88 88 44 44 44 44 22 22 22 52 22 AA D1 AE 82 82 41
41 41 41 10 10
COM1 Read(hex): 88(Bytes) 88 88 48 C9 2A A2 C6 AE 82 82 41 41 41 41 10 10
88 88 88 88 44 44 44 44 22 22 22 22 11 11 11 11 04 72 F9 95 D1 A6 57 41 41
41 10 10 88 88 88 88 44 44 44 44 22 22 22 22 11 11 11 11 04 04 82 82 82 82
41 41 41 41 10 10 88 88 88 88 44 44 44 44 82 01 01 00 00 80 80 80
COM1 Read(hex): 9(Bytes) 80 40 40 40 40 20 E0 28 64
COM1 Write(hex): 4(Bytes)FC FF B5 FF
COM1 Read(hex): 1(Bytes) CA
COM1 Write(hex): 8(Bytes)FF FF EF FF F7 FF FF 07
COM1 Write(hex): 7(Bytes)F0 FF 7F FB FF 7F FF
COM1 Read(hex): 49(Bytes) 60 80 80 0A 00 00 80 80 80 80 40 40 40 40 20 20
20 20 10 10 10 10 08 08 08 08 04 04 04 04 02 02 02 02 01 C9 C9 2A 5C C5 A5
E5 86 53 43 5D 63 10 10
COM1 Read(hex): 8(Bytes) 88 88 8A 8D CA AA A1 C6
COM1 Read(hex): 88(Bytes) FD C9 36 10 10 88 8C 04 C9 AD A5 95 30 2E 10 10 2A
B2 91 B5 E6 A6 34 30 8C 88 C4 24 C7 C4 63 52 04 04 82 82 82 82 26 3E 1C
25 25 92 13 11 11 04 04 82 82 82 82 2E 3E 4A 93 E2 31 31 8C EC FA 86 8E FA
43 4B 41 41 10 10 88 88 88 88 44 44 44 44 22 22 22 52 22 AA D1 AE
COM1 Read(hex): 8(Bytes) 82 82 41 41 41 41 10 10
COM1 Read(hex): 8(Bytes) 88 88 48 C9 2A A2 C6 AE
COM1 Read(hex): 16(Bytes) 82 82 41 41 41 41 10 10 88 88 88 88 44 44 44 44
COM1 Read(hex): 71(Bytes) 22 22 22 22 11 11 11 11 04 72 F9 95 D1 A6 57 41
41 41 10 10 88 88 88 88 44 44 44 44 22 22 22 22 11 11 11 11 04 04 82 82 82
82 41 41 41 41 10 10 88 88 88 88 44 44 44 44 82 01 01 00 00 80 80 80 80 40
40 40 40 20 E0
COM1 Read(hex): 2(Bytes) 28 64
COM1 Write(hex): 4(Bytes)FC FF B5 FF
COM1 Read(hex): 1(Bytes) CA
COM1 Write(hex): 8(Bytes)FF FF EF FF F7 FF FF 07
COM1 Write(hex): 7(Bytes)F0 FF 7F FB FF 7F FF
COM1 Read(hex): 49(Bytes) 60 80 80 0A 00 00 80 80 80 80 40 40 40 40 20 20
20 20 10 10 10 10 08 08 08 08 04 04 04 04 02 02 02 02 01 C9 C9 2A 5C C5 A5
E5 86 53 43 5D 63 10 10
COM1 Read(hex): 8(Bytes) 88 88 8A 8D CA AA A1 C6
COM1 Read(hex): 8(Bytes) FD C9 36 10 10 88 8C 04
COM1 Read(hex): 96(Bytes) C9 AD A5 95 30 2E 10 10 2A B2 91 B5 E6 A6 34 30 8C
88 C4 24 C7 C4 63 52 04 04 82 82 82 82 26 3E 1C 25 25 92 13 11 11 04 04
82 82 82 82 2E 3E 4A 93 E2 31 31 8C EC FA 86 8E FA 43 4B 41 41 10 10 88 88
88 88 44 44 44 44 22 22 22 52 22 AA D1 AE 82 82 41 41 41 41 10 10 88 88 48
C9 2A A2 C6 AE
COM1 Read(hex): 87(Bytes) 82 82 41 41 41 41 10 10 88 88 88 88 44 44 44 44
22 22 22 22 11 11 11 11 04 72 F9 95 D1 A6 57 41 41 41 10 10 88 88 88 88 44
44 44 44 22 22 22 22 11 11 11 11 04 04 82 82 82 82 41 41 41 41 10 10 88 88
88 88 44 44 44 44 82 01 01 00 00 80 80 80 80 40 40 40 40 20 E0
COM1 Read(hex): 2(Bytes) 28 64
COM1 Write(hex): 4(Bytes)FC FF B5 FF
COM1 Read(hex): 1(Bytes) CA
COM1 Write(hex): 8(Bytes)FF FF EF FF F7 FF FF 07
COM1 Write(hex): 7(Bytes)F0 FF 7F FB FF 7F FF
COM1 Read(hex): 49(Bytes) 60 80 80 0A 00 00 80 80 80 80 40 40 40 40 20 20
20 20 10 10 10 10 08 08 08 08 04 04 04 04 02 02 02 02 01 C9 C9 2A 5C C5 A5
E5 86 53 43 5D 63 10 10
COM1 Read(hex): 8(Bytes) 88 88 8A 8D CA AA A1 C6
COM1 Read(hex): 96(Bytes) FD C9 36 10 10 88 8C 04 C9 AD A5 95 30 2E 10 10 2A
B2 91 B5 E6 A6 34 30 8C 88 C4 24 C7 C4 63 52 04 04 82 82 82 82 26 3E 1C
25 25 92 13 11 11 04 04 82 82 82 82 2E 3E 4A 93 E2 31 31 8C EC FA 86 8E FA
43 4B 41 41 10 10 88 88 88 88 44 44 44 44 22 22 22 52 22 AA D1 AE 82 82 41
41 41 41 10 10
COM1 Read(hex): 95(Bytes) 88 88 48 C9 2A A2 C6 AE 82 82 41 41 41 41 10 10
88 88 88 88 44 44 44 44 22 22 22 22 11 11 11 11 04 72 F9 95 D1 A6 57 41 41
41 10 10 88 88 88 88 44 44 44 44 22 22 22 22 11 11 11 11 04 04 82 82 82 82
41 41 41 41 10 10 88 88 88 88 44 44 44 44 82 01 01 00 00 80 80 80 80 40 40
40 40 20 E0
COM1 Read(hex): 2(Bytes) 28 64
COM1 Write(hex): 4(Bytes)FC FF B5 FF
COM1 Read(hex): 1(Bytes) CA
COM1 Write(hex): 8(Bytes)FF FF EF FF F7 FF FF 07
COM1 Write(hex): 7(Bytes)F0 FF 7F FB FF 7F FF
COM1 Read(hex): 49(Bytes) 60 80 80 0A 00 00 80 80 80 80 40 40 40 40 20 20
20 20 10 10 10 10 08 08 08 08 04 04 04 04 02 02 02 02 01 C9 C9 2A 5C C5 A5
E5 86 53 43 5D 63 10 10
COM1 Read(hex): 8(Bytes) 88 88 8A 8D CA AA A1 C6
COM1 Read(hex): 88(Bytes) FD C9 36 10 10 88 8C 04 C9 AD A5 95 30 2E 10 10 2A
B2 91 B5 E6 A6 34 30 8C 88 C4 24 C7 C4 63 52 04 04 82 82 82 82 26 3E 1C
25 25 92 13 11 11 04 04 82 82 82 82 2E 3E 4A 93 E2 31 31 8C EC FA 86 8E FA
43 4B 41 41 10 10 88 88 88 88 44 44 44 44 22 22 22 52 22 AA D1 AE
COM1 Read(hex): 8(Bytes) 82 82 41 41 41 41 10 10
COM1 Read(hex): 88(Bytes) 88 88 48 C9 2A A2 C6 AE 82 82 41 41 41 41 10 10
88 88 88 88 44 44 44 44 22 22 22 22 11 11 11 11 04 72 F9 95 D1 A6 57 41 41
41 10 10 88 88 88 88 44 44 44 44 22 22 22 22 11 11 11 11 04 04 82 82 82 82
41 41 41 41 10 10 88 88 88 88 44 44 44 44 82 01 01 00 00 80 80 80
COM1 Read(hex): 9(Bytes) 80 40 40 40 40 20 E0 28 64
COM1 Write(hex): 4(Bytes)FC FF B5 FF
COM1 Read(hex): 1(Bytes) CA
COM1 Write(hex): 8(Bytes)FF FF EF FF F7 FF FF 07
COM1 Write(hex): 7(Bytes)F0 FF 7F FB FF 7F FF
COM1 Read(hex): 57(Bytes) 60 80 80 0A 00 00 80 80 80 80 40 40 40 40 20 20
20 20 10 10 10 10 08 08 08 08 04 04 04 04 02 02 02 02 01 C9 C9 2A 5C C5 A5
E5 86 53 43 5D 63 10 10 88 88 8A 8D CA AA A1 C6
COM1 Read(hex): 8(Bytes) FD C9 36 10 10 88 8C 04
COM1 Read(hex): 8(Bytes) C9 AD A5 95 30 2E 10 10
COM1 Read(hex): 88(Bytes) 2A B2 91 B5 E6 A6 34 30 8C 88 C4 24 C7 C4 63 52
04 04 82 82 82 82 26 3E 1C 25 25 92 13 11 11 04 04 82 82 82 82 2E 3E 4A 93
E2 31 31 8C EC FA 86 8E FA 43 4B 41 41 10 10 88 88 88 88 44 44 44 44 22 22
22 52 22 AA D1 AE 82 82 41 41 41 41 10 10 88 88 48 C9 2A A2 C6 AE
COM1 Read(hex): 87(Bytes) 82 82 41 41 41 41 10 10 88 88 88 88 44 44 44 44
22 22 22 22 11 11 11 11 04 72 F9 95 D1 A6 57 41 41 41 10 10 88 88 88 88 44
44 44 44 22 22 22 22 11 11 11 11 04 04 82 82 82 82 41 41 41 41 10 10 88 88
88 88 44 44 44 44 82 01 01 00 00 80 80 80 80 40 40 40 40 20 E0
COM1 Read(hex): 2(Bytes) 28 64
COM1 Write(hex): 4(Bytes)FC FF B5 FF
COM1 Read(hex): 1(Bytes) CA
COM1 Write(hex): 8(Bytes)FF FF EF FF F7 FF FF 07
COM1 Write(hex): 7(Bytes)F0 FF 7F FB FF 7F FF
COM1 Read(hex): 49(Bytes) 60 80 80 0A 00 00 80 80 80 80 40 40 40 40 20 20
20 20 10 10 10 10 08 08 08 08 04 04 04 04 02 02 02 02 01 C9 C9 2A 5C C5 A5
E5 86 53 43 5D 63 10 10
COM1 Read(hex): 8(Bytes) 88 88 8A 8D CA AA A1 C6
COM1 Read(hex): 96(Bytes) FD C9 36 10 10 88 8C 04 C9 AD A5 95 30 2E 10 10 2A
B2 91 B5 E6 A6 34 30 8C 88 C4 24 C7 C4 63 52 04 04 82 82 82 82 26 3E 1C
25 25 92 13 11 11 04 04 82 82 82 82 2E 3E 4A 93 E2 31 31 8C EC FA 86 8E FA
43 4B 41 41 10 10 88 88 88 88 44 44 44 44 22 22 22 52 22 AA D1 AE 82 82 41
41 41 41 10 10
COM1 Read(hex): 8(Bytes) 88 88 48 C9 2A A2 C6 AE
COM1 Read(hex): 87(Bytes) 82 82 41 41 41 41 10 10 88 88 88 88 44 44 44 44
22 22 22 22 11 11 11 11 04 72 F9 95 D1 A6 57 41 41 41 10 10 88 88 88 88 44
44 44 44 22 22 22 22 11 11 11 11 04 04 82 82 82 82 41 41 41 41 10 10 88 88
88 88 44 44 44 44 82 01 01 00 00 80 80 80 80 40 40 40 40 20 E0
COM1 Read(hex): 2(Bytes) 28 64
COM1 Write(hex): 4(Bytes)FC FF B5 FF
COM1 Read(hex): 1(Bytes) CA
COM1 Write(hex): 8(Bytes)FF FF EF FF F7 FF FF 07
COM1 Write(hex): 7(Bytes)F0 FF 7F FB FF 7F FF
COM1 Read(hex): 49(Bytes) 60 80 80 0A 00 00 80 80 80 80 40 40 40 40 20 20
20 20 10 10 10 10 08 08 08 08 04 04 04 04 02 02 02 02 01 C9 C9 2A 5C C5 A5
E5 86 53 43 5D 63 10 10
COM1 Read(hex): 8(Bytes) 88 88 8A 8D CA AA A1 C6
COM1 Read(hex): 96(Bytes) FD C9 36 10 10 88 8C 04 C9 AD A5 95 30 2E 10 10 2A
B2 91 B5 E6 A6 34 30 8C 88 C4 24 C7 C4 63 52 04 04 82 82 82 82 26 3E 1C
25 25 92 13 11 11 04 04 82 82 82 82 2E 3E 4A 93 E2 31 31 8C EC FA 86 8E FA
43 4B 41 41 10 10 88 88 88 88 44 44 44 44 22 22 22 52 22 AA D1 AE 82 82 41
41 41 41 10 10
COM1 Read(hex): 95(Bytes) 88 88 48 C9 2A A2 C6 AE 82 82 41 41 41 41 10 10
88 88 88 88 44 44 44 44 22 22 22 22 11 11 11 11 04 72 F9 95 D1 A6 57 41 41
41 10 10 88 88 88 88 44 44 44 44 22 22 22 22 11 11 11 11 04 04 82 82 82 82
41 41 41 41 10 10 88 88 88 88 44 44 44 44 82 01 01 00 00 80 80 80 80 40 40
40 40 20 E0
COM1 Read(hex): 2(Bytes) 28 64
COM1 Write(hex): 4(Bytes)FC FF B5 FF
COM1 Read(hex): 1(Bytes) CA
COM1 Write(hex): 8(Bytes)FF FF EF FF F7 FF FF 07
COM1 Write(hex): 7(Bytes)F0 FF 7F FB FF 7F FF
COM1 Read(hex): 2(Bytes) E0 CA
COM1 Write(hex): 4(Bytes)FC FF B5 FF
COM1 Read(hex): 1(Bytes) CA
COM1 Write(hex): 8(Bytes)FF FF EF FF F7 FF FF 07
COM1 Write(hex): 7(Bytes)F0 FF 7F FB FF 7F FF
COM1 Read(hex): 2(Bytes) E0 CA
COM1 Write(hex): 4(Bytes)FC FF B5 FF
COM1 Read(hex): 1(Bytes) CA
COM1 Write(hex): 8(Bytes)FF FF EF FF F7 FF FF 07
COM1 Write(hex): 7(Bytes)F0 FF 7F FB FF 7F FF
COM1 Read(hex): 2(Bytes) E0 CA
COM1 Write(hex): 4(Bytes)FC FF B5 FF
COM1 Read(hex): 1(Bytes) CA
COM1 Write(hex): 8(Bytes)FF FF EF FF F7 FF FF 07
COM1 Write(hex): 7(Bytes)F0 FF 7F FB FF 7F FF
COM1 Read(hex): 2(Bytes) E0 CA
COM1 Write(hex): 4(Bytes)FC FF B5 FF
COM1 Read(hex): 1(Bytes) CA
COM1 Write(hex): 8(Bytes)FF FF EF FF F7 FF FF 07
COM1 Write(hex): 7(Bytes)F0 FF 7F FB FF 7F FF
COM1 Read(hex): 2(Bytes) E0 CA
COM1 Write(hex): 4(Bytes)FC FF B5 FF
COM1 Read(hex): 1(Bytes) CA
COM1 Write(hex): 8(Bytes)FF FF EF FF F7 FF FF 07
COM1 Write(hex): 7(Bytes)F0 FF 7F FB FF 7F FF
COM1 Read(hex): 2(Bytes) E0 CA
COM1 Write(hex): 4(Bytes)FC FF B5 FF
COM1 Read(hex): 1(Bytes) CA
COM1 Write(hex): 8(Bytes)FF FF EF FF F7 FF FF 07
COM1 Write(hex): 7(Bytes)F0 FF 7F FB FF 7F FF
COM1 Read(hex): 2(Bytes) E0 CA
COM1 Write(hex): 4(Bytes)FC FF B5 FF
COM1 Read(hex): 1(Bytes) CA
COM1 Write(hex): 8(Bytes)FF FF EF FF F7 FF FF 07
COM1 Write(hex): 7(Bytes)F0 FF 7F FB FF 7F FF
COM1 Read(hex): 2(Bytes) E0 CA
COM1 Write(hex): 4(Bytes)FC FF B5 FF
COM1 Read(hex): 1(Bytes) CA
COM1 Write(hex): 8(Bytes)FF FF EF FF F7 FF FF 07
COM1 Write(hex): 7(Bytes)F0 FF 7F FB FF 7F FF
COM1 Read(hex): 2(Bytes) E0 CA
COM1 Write(hex): 4(Bytes)FC FF B5 FF
COM1 Read(hex): 1(Bytes) CA
COM1 Write(hex): 8(Bytes)FF FF EF FF F7 FF FF 07
COM1 Write(hex): 7(Bytes)F0 FF 7F FB FF 7F FF
COM1 Read(hex): 2(Bytes) E0 CA
COM1 Write(hex): 4(Bytes)FC FF B5 FF
COM1 Read(hex): 1(Bytes) CA
COM1 Write(hex): 8(Bytes)FF FF EF FF F7 FF FF 07
COM1 Write(hex): 7(Bytes)F0 FF 7F FB FF 7F FF
COM1 Read(hex): 2(Bytes) E0 CA
COM1 Write(hex): 4(Bytes)FC FF B5 FF
COM1 Read(hex): 1(Bytes) CA
COM1 Write(hex): 8(Bytes)FF FF EF FF F7 FF FF 07
COM1 Write(hex): 7(Bytes)F0 FF 7F FB FF 7F FF
COM1 Read(hex): 2(Bytes) E0 CA
COM1 Write(hex): 4(Bytes)FC FF B5 FF
COM1 Read(hex): 1(Bytes) CA
COM1 Write(hex): 8(Bytes)FF FF EF FF F7 FF FF 07
COM1 Write(hex): 7(Bytes)F0 FF 7F FB FF 7F FF
COM1 Read(hex): 2(Bytes) E0 CA
COM1 Write(hex): 4(Bytes)FC FF B5 FF
COM1 Read(hex): 1(Bytes) CA
COM1 Write(hex): 8(Bytes)FF FF EF FF F7 FF FF 07
COM1 Write(hex): 7(Bytes)F0 FF 7F FB FF 7F FF
COM1 Read(hex): 2(Bytes) E0 CA
COM1 Write(hex): 4(Bytes)FC FF B5 FF
COM1 Read(hex): 1(Bytes) CA
COM1 Write(hex): 8(Bytes)FF FF EF FF F7 FF FF 07
COM1 Write(hex): 7(Bytes)F0 FF 7F FB FF 7F FF
COM1 Read(hex): 2(Bytes) E0 CA
COM1 Write(hex): 4(Bytes)FC FF B5 FF
COM1 Read(hex): 1(Bytes) CA
COM1 Write(hex): 8(Bytes)FF FF EF FF F7 FF FF 07
COM1 Write(hex): 7(Bytes)F0 FF 7F FB FF 7F FF
COM1 Read(hex): 2(Bytes) E0 CA
-----------------------------------------------------------------
COM1 Write(hex): 4(Bytes)FC FF B5 FF
COM1 Read(hex): 1(Bytes) CA
COM1 Write(hex): 8(Bytes)FF FF EF FF F7 FF FF 07
COM1 Write(hex): 7(Bytes)F0 FF 7F FB FF 7F FF
COM1 Read(hex): 2(Bytes) FF CA
COM1 Write(hex): 4(Bytes)FC FF B5 FF
COM1 Read(hex): 1(Bytes) CA
COM1 Write(hex): 8(Bytes)FF FF EF FF F7 FF FF 07
COM1 Write(hex): 7(Bytes)F0 FF 7F FB FF 7F FF
COM1 Read(hex): 2(Bytes) F8 CA
COM1 Write(hex): 4(Bytes)FC FF B5 FF
COM1 Read(hex): 1(Bytes) CA
COM1 Write(hex): 8(Bytes)FF FF EF FF F7 FF FF 07
COM1 Write(hex): 7(Bytes)F0 FF 7F FB FF 7F FF
COM1 Read(hex): 2(Bytes) F8 CA
COM1 Write(hex): 4(Bytes)FC FF B5 FF
COM1 Read(hex): 1(Bytes) CA
COM1 Write(hex): 8(Bytes)FF FF EF FF F7 FF FF 07
COM1 Write(hex): 7(Bytes)F0 FF 7F FB FF 7F FF
COM1 Read(hex): 2(Bytes) E0 CA
COM1 Write(hex): 4(Bytes)FC FF B5 FF
COM1 Read(hex): 1(Bytes) CA
COM1 Write(hex): 8(Bytes)FF FF EF FF F7 FF FF 07
COM1 Write(hex): 7(Bytes)F0 FF 7F FB FF 7F FF
COM1 Read(hex): 2(Bytes) E0 CA
COM1 Write(hex): 4(Bytes)FC FF B5 FF
COM1 Read(hex): 1(Bytes) CA
COM1 Write(hex): 8(Bytes)FF FF EF FF F7 FF FF 07
COM1 Write(hex): 7(Bytes)F0 FF 7F FB FF 7F FF
COM1 Read(hex): 2(Bytes) E0 CA
COM1 Write(hex): 4(Bytes)FC FF B5 FF
COM1 Read(hex): 1(Bytes) CA
COM1 Write(hex): 8(Bytes)FF FF EF FF F7 FF FF 07
COM1 Write(hex): 7(Bytes)F0 FF 7F FB FF 7F FF
COM1 Read(hex): 2(Bytes) E0 CA
COM1 Write(hex): 4(Bytes)FC FF B5 FF
COM1 Read(hex): 1(Bytes) CA
COM1 Write(hex): 8(Bytes)FF FF EF FF F7 FF FF 07
COM1 Write(hex): 7(Bytes)F0 FF 7F FB FF 7F FF
COM1 Read(hex): 2(Bytes) E0 CA
COM1 Write(hex): 4(Bytes)FC FF B5 FF
COM1 Read(hex): 1(Bytes) CA
COM1 Write(hex): 8(Bytes)FF FF EF FF F7 FF FF 07
COM1 Write(hex): 7(Bytes)F0 FF 7F FB FF 7F FF
COM1 Read(hex): 2(Bytes) E0 CA
COM1 Write(hex): 4(Bytes)FC FF B5 FF
COM1 Read(hex): 1(Bytes) CA
COM1 Write(hex): 8(Bytes)FF FF EF FF F7 FF FF 07
COM1 Write(hex): 7(Bytes)F0 FF 7F FB FF 7F FF
COM1 Write(hex): 4(Bytes)FC FF B5 FF
COM1 Read(hex): 1(Bytes) CA
COM1 Write(hex): 8(Bytes)FF FF EF FF F7 FF FF 07
COM1 Write(hex): 7(Bytes)F0 FF 7F FB FF 7F FF
COM1 Read(hex): 2(Bytes) E0 CA
COM1 Write(hex): 4(Bytes)FC FF B5 FF
COM1 Read(hex): 1(Bytes) CA
COM1 Write(hex): 8(Bytes)FF FF EF FF F7 FF FF 07
COM1 Write(hex): 7(Bytes)F0 FF 7F FB FF 7F FF
COM1 Read(hex): 2(Bytes) E0 CA
COM1 Write(hex): 4(Bytes)FC FF B5 FF
COM1 Read(hex): 1(Bytes) CA
COM1 Write(hex): 8(Bytes)FF FF EF FF F7 FF FF 07
COM1 Write(hex): 7(Bytes)F0 FF 7F FB FF 7F FF
COM1 Read(hex): 2(Bytes) E0 CA
COM1 Write(hex): 4(Bytes)FC FF B5 FF
COM1 Read(hex): 1(Bytes) CA
COM1 Write(hex): 8(Bytes)FF FF EF FF F7 FF FF 07
COM1 Write(hex): 7(Bytes)F0 FF 7F FB FF 7F FF
COM1 Read(hex): 2(Bytes) E0 CA
COM1 Write(hex): 4(Bytes)FC FF B5 FF
COM1 Read(hex): 1(Bytes) CA
COM1 Write(hex): 8(Bytes)FF FF EF FF F7 FF FF 07
COM1 Write(hex): 7(Bytes)F0 FF 7F FB FF 7F FF
COM1 Read(hex): 2(Bytes) E0 CA
COM1 Write(hex): 4(Bytes)FC FF B5 FF
COM1 Read(hex): 1(Bytes) CA
COM1 Write(hex): 8(Bytes)FF FF EF FF F7 FF FF 07
COM1 Write(hex): 7(Bytes)F0 FF 7F FB FF 7F FF
COM1 Read(hex): 2(Bytes) E0 CA
COM1 Write(hex): 4(Bytes)FC FF B5 FF
COM1 Read(hex): 1(Bytes) CA
COM1 Write(hex): 8(Bytes)FF FF EF FF F7 FF FF 07
COM1 Write(hex): 7(Bytes)F0 FF 7F FB FF 7F FF
COM1 Read(hex): 64(Bytes) 60 00 8F 0A 04 04 04 04 04 04 04 04 04 04 04 04
04 04 04 04 04 04 04 04 04 04 04 04 04 04 04 04 04 04 04 04 A2 B2 0A 5C 2A
A2 CA 2A 04 04 04 04 04 04 04 04 04 0C F4 2A A2 CA 2A FA 32 F2 2A 04
COM1 Read(hex): 8(Bytes) 04 F4 0C 04 04 04 04 04
COM1 Read(hex): 88(Bytes) 04 04 04 04 F4 04 04 04 04 04 04 04 04 04 04 04
04 04 04 04 04 04 04 04 04 04 04 04 32 F2 C2 5C 04 04 04 04 04 04 04 04 04
04 04 04 72 F2 4A B2 32 5C 4C 0C 8C EC F4 8C 8C F4 8C 2C 04 04 04 04 04 04
04 04 04 04 04 04 04 04 04 04 8A 22 AA A2 5C 04 04 04 04 04 04 04
COM1 Read(hex): 8(Bytes) 04 04 04 04 72 F2 2A A2
COM1 Read(hex): 78(Bytes) 8C 5C 04 04 04 04 04 04 04 04 04 04 04 04 04 04
04 04 04 04 04 04 04 04 04 04 04 04 72 F2 2A A2 4C 5C 04 04 04 04 04 04 04
04 04 04 04 04 04 04 04 04 04 04 04 04 04 04 04 04 04 04 6A A6 4E CE 96 F6
76 04 CC 74 EC 04 04 04 04 04 59 14
COM1 Write(hex): 2(Bytes)9F FF
COM1 Write(hex): 4(Bytes)FC FF B5 FF
COM1 Read(hex): 1(Bytes) CA
COM1 Write(hex): 8(Bytes)FF FF DF FF F9 FF FF F9
COM1 Write(hex): 3(Bytes)FF FF FF
COM1 Read(hex): 1(Bytes) 60
COM1 Write(hex): 4(Bytes)FC FF B5 FF
COM1 Read(hex): 1(Bytes) CA
COM1 Write(hex): 8(Bytes)FF FF EF FF F7 FF FF 07
COM1 Write(hex): 7(Bytes)F0 FF 7F FB FF 7F FF
COM1 Read(hex): 64(Bytes) 60 00 8F 0A 04 04 04 04 04 04 04 04 04 04 04 04
04 04 04 04 04 04 04 04 04 04 04 04 04 04 04 04 04 04 04 04 A2 B2 0A 5C 2A
A2 CA 2A 04 04 04 04 04 04 04 04 04 0C F4 2A A2 CA 2A FA 32 F2 2A 04
COM1 Read(hex): 88(Bytes) 04 F4 0C 04 04 04 04 04 04 04 04 04 F4 04 04 04
04 04 04 04 04 04 04 04 04 04 04 04 04 04 04 04 04 04 04 04 32 F2 C2 5C 04
04 04 04 04 04 04 04 04 04 04 04 72 F2 4A B2 32 5C 4C 0C 8C EC F4 8C 8C F4
8C 2C 04 04 04 04 04 04 04 04 04 04 04 04 04 04 04 04 8A 22 AA A2
COM1 Read(hex): 88(Bytes) 5C 04 04 04 04 04 04 04 04 04 04 04 72 F2 2A A2 8C
5C 04 04 04 04 04 04 04 04 04 04 04 04 04 04 04 04 04 04 04 04 04 04 04
04 04 04 72 F2 2A A2 4C 5C 04 04 04 04 04 04 04 04 04 04 04 04 04 04 04 04
04 04 04 04 04 04 04 04 04 04 6A A6 4E CE 96 F6 76 04 CC 74 EC 04
COM1 Read(hex): 6(Bytes) 04 04 04 04 59 14
COM1 Write(hex): 2(Bytes)9F FF
COM1 Write(hex): 4(Bytes)FC FF B5 FF
COM1 Read(hex): 1(Bytes) CA
COM1 Write(hex): 8(Bytes)FF FF DF FF F9 FF FF F9
COM1 Write(hex): 3(Bytes)FF FF FF
COM1 Read(hex): 1(Bytes) 60
COM1 Write(hex): 4(Bytes)FC FF B5 FF
COM1 Read(hex): 1(Bytes) CA
COM1 Write(hex): 8(Bytes)FF FF 1F FF 77 FF FB 07
COM1 Write(hex): 6(Bytes)34 FF 3B FF 7F FF
COM1 Read(hex): 1(Bytes) 60
COM1 Write(hex): 8(Bytes)FF FF 54 FF F5 FF 5D 4D
COM1 Write(hex): 8(Bytes)F5 A3 D5 5D 35 D5 FB FB
COM1 Write(hex): 8(Bytes)FB FB FB FB FB FB FB F3
COM1 Write(hex): 8(Bytes)0B D5 5D 35 D5 05 CD 0D
COM1 Write(hex): 8(Bytes)D5 FB FB 0B F3 FB FB FB
COM1 Write(hex): 8(Bytes)FB FB FB FB FB FB 0B FB
COM1 Write(hex): 8(Bytes)FB FB FB FB FB FB FB FB
COM1 Write(hex): 8(Bytes)FB FB FB FB FB FB FB FB
COM1 Write(hex): 8(Bytes)FB FB FB FB FB FB CD 0D
COM1 Write(hex): 8(Bytes)3D A3 FB FB FB FB FB FB
COM1 Write(hex): 8(Bytes)FB FB FB FB FB FB 8D 0D
COM1 Write(hex): 8(Bytes)B5 4D CD A3 B3 F3 73 13
COM1 Write(hex): 8(Bytes)0B 73 73 0B 73 D3 FB FB
COM1 Write(hex): 8(Bytes)FB FB FB FB FB FB FB FB
COM1 Write(hex): 8(Bytes)FB FB FB FB FB FB 75 DD
COM1 Write(hex): 8(Bytes)55 5D A3 FB FB FB FB FB
COM1 Write(hex): 8(Bytes)FB FB FB FB FB FB 8D 0D
COM1 Write(hex): 8(Bytes)D5 5D 73 A3 FB FB FB FB
COM1 Write(hex): 8(Bytes)FB FB FB FB FB FB FB FB
COM1 Write(hex): 8(Bytes)FB FB FB FB FB FB FB FB
COM1 Write(hex): 8(Bytes)FB FB FB FB FB FB 8D 0D
COM1 Write(hex): 8(Bytes)D5 5D B3 A3 FB FB FB FB
COM1 Write(hex): 8(Bytes)FB FB FB FB FB FB FB FB
COM1 Write(hex): 8(Bytes)FB FB FB FB FB FB FB FB
COM1 Write(hex): 8(Bytes)FB FB FB FB FB FB 95 59
COM1 Write(hex): 8(Bytes)B1 31 69 09 89 FB 33 8B
COM1 Write(hex): 8(Bytes)13 FB FB FB FB FB FB CF
COM1 Write(hex): 4(Bytes)9C FF DB FF
COM1 Read(hex): 1(Bytes) 60
COM1 Write(hex): 4(Bytes)FC FF B5 FF
COM1 Read(hex): 1(Bytes) CA
COM1 Write(hex): 8(Bytes)FF FF DF FF F9 FF FF F9
COM1 Write(hex): 3(Bytes)FF FF FF
COM1 Read(hex): 1(Bytes) 60
COM1 Write(hex): 4(Bytes)FC FF B5 FF
COM1 Read(hex): 1(Bytes) CA
COM1 Write(hex): 8(Bytes)FF FF EF FF F7 FF FF 07
COM1 Write(hex): 7(Bytes)F0 FF 7F FB FF 7F FF
COM1 Read(hex): 64(Bytes) 60 00 8F 0A 04 04 04 04 04 04 04 04 04 04 04 04
04 04 04 04 04 04 04 04 04 04 04 04 04 04 04 04 04 04 04 04 A2 B2 0A 5C 2A
A2 CA 2A 04 04 04 04 04 04 04 04 04 0C F4 2A A2 CA 2A FA 32 F2 2A 04
COM1 Read(hex): 88(Bytes) 04 F4 0C 04 04 04 04 04 04 04 04 04 F4 04 04 04
04 04 04 04 04 04 04 04 04 04 04 04 04 04 04 04 04 04 04 04 32 F2 C2 5C 04
04 04 04 04 04 04 04 04 04 04 04 72 F2 4A B2 32 5C 4C 0C 8C EC F4 8C 8C F4
8C 2C 04 04 04 04 04 04 04 04 04 04 04 04 04 04 04 04 8A 22 AA A2
COM1 Read(hex): 88(Bytes) 5C 04 04 04 04 04 04 04 04 04 04 04 72 F2 2A A2 8C
5C 04 04 04 04 04 04 04 04 04 04 04 04 04 04 04 04 04 04 04 04 04 04 04
04 04 04 72 F2 2A A2 4C 5C 04 04 04 04 04 04 04 04 04 04 04 04 04 04 04 04
04 04 04 04 04 04 04 04 04 04 6A A6 4E CE 96 F6 76 04 CC 74 EC 04
COM1 Read(hex): 6(Bytes) 04 04 04 04 59 14
COM1 Write(hex): 2(Bytes)9F FF
COM1 Write(hex): 4(Bytes)FC FF B5 FF
COM1 Read(hex): 1(Bytes) CA
COM1 Write(hex): 8(Bytes)FF FF DF FF F9 FF FF F9
COM1 Write(hex): 3(Bytes)FF FF FF
COM1 Read(hex): 1(Bytes) 60
COM1 Write(hex): 4(Bytes)FC FF B5 FF
COM1 Read(hex): 1(Bytes) CA
COM1 Write(hex): 8(Bytes)FF FF EF FF F7 FF FF 07
COM1 Write(hex): 7(Bytes)F0 FF 7F FB FF 7F FF
COM1 Read(hex): 64(Bytes) 60 00 8F 0A 04 04 04 04 04 04 04 04 04 04 04 04
04 04 04 04 04 04 04 04 04 04 04 04 04 04 04 04 04 04 04 04 A2 B2 0A 5C 2A
A2 CA 2A 04 04 04 04 04 04 04 04 04 0C F4 2A A2 CA 2A FA 32 F2 2A 04
COM1 Read(hex): 88(Bytes) 04 F4 0C 04 04 04 04 04 04 04 04 04 F4 04 04 04
04 04 04 04 04 04 04 04 04 04 04 04 04 04 04 04 04 04 04 04 32 F2 C2 5C 04
04 04 04 04 04 04 04 04 04 04 04 72 F2 4A B2 32 5C 4C 0C 8C EC F4 8C 8C F4
8C 2C 04 04 04 04 04 04 04 04 04 04 04 04 04 04 04 04 8A 22 AA A2
COM1 Read(hex): 8(Bytes) 5C 04 04 04 04 04 04 04
COM1 Read(hex): 86(Bytes) 04 04 04 04 72 F2 2A A2 8C 5C 04 04 04 04 04 04
04 04 04 04 04 04 04 04 04 04 04 04 04 04 04 04 04 04 04 04 72 F2 2A A2 4C
5C 04 04 04 04 04 04 04 04 04 04 04 04 04 04 04 04 04 04 04 04 04 04 04 04
04 04 6A A6 4E CE 96 F6 76 04 CC 74 EC 04 04 04 04 04 59 14
COM1 Write(hex): 2(Bytes)9F FF
COM1 Write(hex): 4(Bytes)FC FF B5 FF
COM1 Read(hex): 1(Bytes) CA
COM1 Write(hex): 8(Bytes)FF FF DF FF F9 FF FF F9
COM1 Write(hex): 3(Bytes)FF FF FF
COM1 Read(hex): 1(Bytes) 60
COM1 Write(hex): 4(Bytes)FC FF B5 FF
COM1 Read(hex): 1(Bytes) CA
COM1 Write(hex): 8(Bytes)FF FF 1F FF 77 FF FB 07
COM1 Write(hex): 6(Bytes)34 FF 3B FF 7F FF
COM1 Read(hex): 1(Bytes) 60
COM1 Write(hex): 8(Bytes)FF FF 54 FF F5 FF 5D 4D
COM1 Write(hex): 8(Bytes)F5 A3 D5 5D 35 D5 FB FB
COM1 Write(hex): 8(Bytes)FB FB FB FB FB FB FB F3
COM1 Write(hex): 8(Bytes)0B D5 5D 35 D5 05 CD 0D
COM1 Write(hex): 8(Bytes)D5 FB FB 0B F3 FB FB FB
COM1 Write(hex): 8(Bytes)FB FB FB FB FB FB 0B FB
COM1 Write(hex): 8(Bytes)FB FB FB FB FB FB FB FB
COM1 Write(hex): 8(Bytes)FB FB FB FB FB FB FB FB
COM1 Write(hex): 8(Bytes)FB FB FB FB FB FB CD 0D
COM1 Write(hex): 8(Bytes)3D A3 FB FB FB FB FB FB
COM1 Write(hex): 8(Bytes)FB FB FB FB FB FB 8D 0D
COM1 Write(hex): 8(Bytes)B5 4D CD A3 B3 F3 73 13
COM1 Write(hex): 8(Bytes)0B 73 73 0B 73 D3 FB FB
COM1 Write(hex): 8(Bytes)FB FB FB FB FB FB FB FB
COM1 Write(hex): 8(Bytes)FB FB FB FB FB FB 75 DD
COM1 Write(hex): 8(Bytes)55 5D A3 FB FB FB FB FB
COM1 Write(hex): 8(Bytes)FB FB FB FB FB FB 8D 0D
COM1 Write(hex): 8(Bytes)D5 5D 73 A3 FB FB FB FB
COM1 Write(hex): 8(Bytes)FB FB FB FB FB FB FB FB
COM1 Write(hex): 8(Bytes)FB FB FB FB FB FB FB FB
COM1 Write(hex): 8(Bytes)FB FB FB FB FB FB 8D 0D
COM1 Write(hex): 8(Bytes)D5 5D B3 A3 FB FB FB FB
COM1 Write(hex): 8(Bytes)FB FB FB FB FB FB FB FB
COM1 Write(hex): 8(Bytes)FB FB FB FB FB FB FB FB
COM1 Write(hex): 8(Bytes)FB FB FB FB FB FB 95 59
COM1 Write(hex): 8(Bytes)B1 31 69 09 89 FB 33 8B
COM1 Write(hex): 8(Bytes)13 FB FB FB FB FB FB CF
COM1 Write(hex): 4(Bytes)9C FF DB FF
COM1 Read(hex): 1(Bytes) 60
COM1 Write(hex): 4(Bytes)FC FF B5 FF
COM1 Read(hex): 1(Bytes) CA
COM1 Write(hex): 8(Bytes)FF FF DF FF F9 FF FF F9
COM1 Write(hex): 3(Bytes)FF FF FF
COM1 Read(hex): 1(Bytes) 60




 ---------------------------------------------------------------------------

                                                         TSMC PROPERTY

 This email communication (and any attachments) is proprietary information

 for the sole use of its

 intended recipient. Any unauthorized review, use or distribution by anyone

 other than the intended

 recipient is strictly prohibited.  If you are not the intended recipient,

 please notify the sender by

 replying to this email, and then delete this email and any copies of it

 immediately. Thank you.

 ---------------------------------------------------------------------------





---
此電子郵件已由 AVG 檢查病毒。
http://www.avg.com
