
                                                                        E   M  P  :
FC FF B5 FF FF FF 1F FF 77 FF FB 07 34 FF 3B FF 7F FF FF FF 54 FF F5 FF 5D 4D F5 A3 D5 5D 35 D5 FB FB FB FB FB FB FB FB FB F3 0B D5 5D 35 D5 05 CD 0D D5 FB FB 0B F3 FB FB FB FB FB FB FB FB FB 0B FB FB FB FB FB FB FB FB FB FB FB FB FB FB FB FB FB FB FB FB FB FB FB CD 0D 3D A3 FB FB FB FB FB FB FB FB FB FB FB FB 8D 0D B5 4D CD A3 B3 F3 73 13 0B 73 73 0B 73 D3 FB FB FB FB FB FB FB FB FB FB FB FB FB FB FB FB 75 DD 55 5D A3 FB FB FB FB FB FB FB FB FB FB FB 8D 0D D5 5D 73 A3 FB FB FB FB FB FB FB FB FB FB FB FB FB FB FB FB FB FB FB FB FB FB FB FB FB FB 8D 0D D5 5D B3 A3 FB FB FB FB FB FB FB FB FB FB FB FB FB FB FB FB FB FB FB FB FB FB FB FB FB FB 95 59 B1 31 69 09 89 FB 33 8B 13 FB FB FB FB FB FB CF 9C FF DB FF

FC FF B5 FF FF FF 1F FF 77 FF F7 07 7C FF 7F FF 7F FF FF FF 3C FF F5 FF D5 0D 0D CD A3 ED DD 7D 4B E3 73 FB FB 73 63 FB B5 5D 3D 6D F5 5D A3 4D 5D B5 1D 5D FB FB FB FB FB FB FB FB FB FB FB FB FB FB FB FB FB FB FB FB B5 5D D5 A3 FB FB FB FB FB FB FB FB FB FB FB FB FB FB FB FB FB FB FB FB FB FB FB FB FB FB FB FB CD D5 65 F5 5D A3 4D 8D FB F5 B5 6D 0D A3 35 FB B5 0D 55 D5 5D A3 4D B3 ED DD F5 F5 E3 73 FB FB F5 B5 A3 4D 0D 8D 6D D5 0D B5 4B 4D B3 ED DD F5 F5 E3 73 FB FB FB FB FB FB FB FB FB FB FB FB FB F5 0D DD FB 3D 0B DD A3 73 13 4B F3 E3 4B F3 53 D5 7D 1D FB 6D 0B DD A3 73 13 4B F3 93 4B B3 73 F5 DD A3 4D 4D D3 FB B5 3D 8D D5 A3 FB FB FB FB D6 FF EB FF 

FC FF B5 FF FF FF 1F FF 77 FF FF 07 B0 FF BB FF 7F FF FF FF D0 FF F5 FF FF FF FF FF FF FF FF FF FF FF FF FF FF FF FF FF FF FF FF FF FF FF FF FF FF FF FF FF FF FF FF FF FF FF FF FF FF FF FF FF FF FF FF FF FF FF FF FF FF FF FF FF FF FF FF FF FF FF FF FF FF FF FF FF FF FF FF FF FF FF FF FF FF FF FF FF FF FF FF FF FF FF FF FF FF FF FF FF FF FF FF FF FF FF FF FF FF FF FF FF FF FF FF FF FF FF FF FF FF FF FF FF FF FF FF FF FF FF FF FF FF FF FF FF FF FF FF FF FF FF FF FF FF FF FF FF FF FF FF FF FF FF FF FF FF FF FF FF FF FF FF FF FF FF FF FF FF FF FF FF FF FF FF FF FF FF FF FF FF FF FF FF FF FF FF FF FF FF FF FF FF FF FF FF FF FF FF FF FF FF FF FF FF FF FF FF FF FF FF FF FF FF FF FF FF FF FF FF 73 B3 33 FB FB FB FB FB FB FB FB FB FB FB FB FB FB FB FB FB FB FB FB FB FB FB FB FB FB FB FB FB F4 95 FF 5F FF 
