06 00 03 09 00 00 09 00 CA 60 FF FF 7F D5 60
00 05 08 00 00 08 00 06 

FC FF FF FF 1F FF 77 FF FF 07 B0 FF BB FF 7F FF FF FF D0 FF F5 
FC FF FF FF 1F FF 77 FF FF 07 B0 FF BB FF 7F FF FF FF D0 FF F5 


FF 7B FB 7B 7B FB 7B 7B FB 7B 7B FB 7B 7B FB 7B 7B FB 7B 7B FB 7B 7B FB 7B 7B FB 7B 7B FB 7B 7B FB 7B 7B FB 7B 7B FB 7B 7B FB 7B 7B FB 7B 7B FB 7B 7B FB 7B 7B FB 7B 7B FB 7B 7B FB 7B 7B FB 7B 7B FB 7B 7B FB 7B 7B FB 7B 7B FB 7B 7B FB 7B 7B FB 7B 7B FB 7B 7B FB 7B 7B FB 7B 7B FB 7B 7B FB 7B 7B FB 7B 7B FB 7B 7B FB 7B 7B FB 7B 7B FB 7B 7B FB 7B 7B FB 7B 7B FB 7B 7B FB 7B 7B FB 7B 7B FB 7B 7B FB 7B 7B FB 7B 7B FB 7B 7B FB 7B 7B FB 7B 7B FB 7B 7B FB 7B 7B FB 7B 7B FB 7B 7B FB 7B 7B FB 7B 7B FB 7B 7B FB 7B 7B FB 7B 7B FB 7B 7B FB 7B 7B FB 7B 7B FB 7B 7B FB 7B 7B FB 7B 7B FB 7B 7B FB 7B 7B FB 7B 7B FB 7B 7B FB 7B 7B FB 7B 7B FB 7B 7B FB 7B 7B FB 7B 7B FB 7B 7B FB 7B FB FB FB FB FB FB FB FB FB FB FB FB FB FB FB FB FB FB FF D8 FF 87 FF ;222

FF FF FF FF FF 7F FF FF FF 8F FF FF FF FF FF FF FF FF FF FF FF FF FF FF FF AE 7F FF FF 87 FF FF FF CD 0D D5 A3 75 B5 35 F3 B3 F3 8B 73 FB FB FB FB B3 53 0B 35 55 BD 73 05 6D 4D FB FB FB 0B 73 FB 6D A5 B5 D5 7D 8D FB FB 0B D5 4D DD 95 33 B3 5D 7D 73 F3 F3 F3 3D F3 73 F3 35 FB FB FB FB FB FB CD 0D 3D A3 BD DD 6D 9D FB FB FB FB FB FB FB FB 8D 0D B5 4D CD A3 B3 F3 73 13 0B F3 E3 0B F3 D3 FB FB FB FB FB FB FB FB FB FB FB FB FB FB FB FB 75 DD 55 5D A3 FB FB FB FB FB FB FB FB FB FB FB 8D 0D D5 5D 73 A3 FB FB FB FB FB FB FB FB FB FB FB FB FB FB FB FB FB FB FB FB FB FB FB FB FB FB 8D 0D D5 5D B3 A3 FB FB FB FB FB FB FB FB FB FB FB FB FB FB FB FB FB FB FB FB FB FB FB FB FB FB FB FB FB FB FB FB FB FB FB FB FB FB FB FB FB FB FB BC FF 9B FF


06 00 03 09 00 00 09 00 

CA 60 80 00 0A 00 00 00 00 80 00 00 00 70 00 00 00 00 00 00 00 00 00 00 00 00 00 00 00 51 80 00 00 78 00 00 00 32 F2 2A 5C 8A 4A CA 0C 4C 0C 74 8C 04 04 04 04 4C AC F4 CA AA 42 8C FA 92 B2 04 04 04 F4 8C 04 92 5A 4A 2A 82 72 04 04 F4 2A B2 22 6A CC 4C A2 82 8C 0C 0C 0C C2 0C 8C 0C CA 04 04 04 04 04 04 32 F2 C2 5C 42 22 92 62 04 04 04 04 04 04 04 04 72 F2 4A B2 32 5C 4C 0C 8C EC F4 0C 1C F4 0C 2C 04 04 04 04 04 04 04 04 04 04 04 04 04 04 04 04 8A 22 AA A2 5C 04 04 04 04 04 04 04 04 04 04 04 72 F2 2A A2 8C 5C 04 04 04 04 04 04 04 04 04 04 04 04 04 04 04 04 04 04 04 04 04 04 04 04 04 04 72 F2 2A A2 4C 5C 04 04 04 04 04 04 04 04 04 04 04 04 04 04 04 04 04 04 04 04 04 04 04 04 04 04 04 04 04 04 04 04 04 04 04 04 04 04 04 04 04 04 04 78 FF 15 10 FF 10 F4 00 00 00 00 F8 F0 F8 48 54 00 50 0A BF FF 88 BA 28 84 00 44 00 88 C0 

CA 60 80 80 0A 84 04 84 84 04 84 84 04 84 84 04 84 84 04 84 84 04 84 84 04 84 84 04 84 84 04 84 84 04 84 84 04 84 84 04 84 84 04 84 84 04 84 84 04 84 84 04 84 84 04 84 84 04 84 84 04 84 84 04 84 84 04 84 84 04 84 84 04 84 84 04 84 84 04 84 84 04 84 84 04 84 84 04 84 84 04 84 84 04 84 84 04 84 84 04 84 84 04 84 84 04 84 84 04 84 84 04 84 84 04 84 84 04 84 84 04 84 84 04 84 84 04 84 84 04 84 84 04 84 84 04 84 84 04 84 84 04 84 84 04 84 84 04 84 84 04 84 84 04 84 84 04 84 84 04 84 84 04 84 84 04 84 84 04 84 84 04 84 84 04 84 84 04 84 84 04 84 84 04 84 84 04 84 84 04 84 84 04 84 84 04 84 84 04 84 84 04 84 84 04 84 84 04 84 84 04 84 84 04 84 84 04 84 84 04 84 84 04 84 84 04 84 04 04 04 04 04 04 04 04 04 04 04 04 04 04 04 04 04 04 00 50 00 00 00 00 00 00 00 00 00 00 00 F0 00 00 BF 78 00 90 0A 00 00 00 00 84 00 84 07 4E 80 ;222



00 05 08 00 00 08 00 06 FC FF FF FF EF FF F7 FF FF 07 EF 7F 7F 63 FF FF FF 9F FF 9F FF